; ModuleID = 'autocfg_c4d11111aa195bc3_0.558181cf8b430bfa-cgu.0'
source_filename = "autocfg_c4d11111aa195bc3_0.558181cf8b430bfa-cgu.0"
target datalayout = "e-m:e-p270:32:32-p271:32:32-p272:64:64-i64:64-i128:128-f80:128-n8:16:32:64-S128"
target triple = "x86_64-unknown-linux-gnu"

!llvm.module.flags = !{!0, !1}
!llvm.ident = !{!2}

!0 = !{i32 8, !"PIC Level", i32 2}
!1 = !{i32 2, !"RtLibUseGOT", i32 1}
!2 = !{!"rustc version 1.85.0 (4d91de4e4 2025-02-17)"}
